ID	HeadEchelonID	Name	Phone	Address
4.05	4.05	Dinas Pemberdayaan Masyarakat dan Desa	(0361) 249805	Jl. Panjaitan No.5, Sumerta Kelod, Denpasar Timur
4.06	4.06	Dinas Komunikasi, Informatika dan Statistik	(0361) 225859	Jl. Panjaitan No.7, Sumerta Kelod, Denpasar Timur
4.07	4.07	Dinas Ketahanan Pangan	(0361) 4457563	Jl. WR Supratman No.71, Sumerta Kaja, Denpasar Timur